Lab 5/Lab5 - Copy/simulation/qsim/LogicalStep_Lab5.msim.vcd
$comment
	File created using the following command:
		vcd file LogicalStep_Lab5.msim.vcd -direction
$end
$date
	Fri Jul 14 21:39:36 2017
$end
$version
	ModelSim Version 10.4b
$end
$timescale
	1ps
$end

$scope module LogicalStep_Lab5_top_vlg_vec_tst $end
$var reg 1 ! clkin_50 $end
$var reg 4 " pb [3:0] $end
$var reg 1 # rst_n $end
$var reg 8 $ sw [7:0] $end
$var wire 1 % leds [7] $end
$var wire 1 & leds [6] $end
$var wire 1 ' leds [5] $end
$var wire 1 ( leds [4] $end
$var wire 1 ) leds [3] $end
$var wire 1 * leds [2] $end
$var wire 1 + leds [1] $end
$var wire 1 , leds [0] $end
$var wire 1 - seg7_char1 $end
$var wire 1 . seg7_char2 $end
$var wire 1 / seg7_data [6] $end
$var wire 1 0 seg7_data [5] $end
$var wire 1 1 seg7_data [4] $end
$var wire 1 2 seg7_data [3] $end
$var wire 1 3 seg7_data [2] $end
$var wire 1 4 seg7_data [1] $end
$var wire 1 5 seg7_data [0] $end

$scope module i1 $end
$var wire 1 6 gnd $end
$var wire 1 7 vcc $end
$var wire 1 8 unknown $end
$var tri1 1 9 devclrn $end
$var tri1 1 : devpor $end
$var tri1 1 ; devoe $end
$var wire 1 < pb[0]~input_o $end
$var wire 1 = pb[1]~input_o $end
$var wire 1 > pb[2]~input_o $end
$var wire 1 ? pb[3]~input_o $end
$var wire 1 @ sw[0]~input_o $end
$var wire 1 A sw[1]~input_o $end
$var wire 1 B sw[2]~input_o $end
$var wire 1 C sw[3]~input_o $end
$var wire 1 D sw[4]~input_o $end
$var wire 1 E sw[5]~input_o $end
$var wire 1 F sw[6]~input_o $end
$var wire 1 G sw[7]~input_o $end
$var wire 1 H ~QUARTUS_CREATED_GND~I_combout $end
$var wire 1 I ~QUARTUS_CREATED_UNVM~~busy $end
$var wire 1 J ~QUARTUS_CREATED_ADC1~~eoc $end
$var wire 1 K leds[0]~output_o $end
$var wire 1 L leds[1]~output_o $end
$var wire 1 M leds[2]~output_o $end
$var wire 1 N leds[3]~output_o $end
$var wire 1 O leds[4]~output_o $end
$var wire 1 P leds[5]~output_o $end
$var wire 1 Q leds[6]~output_o $end
$var wire 1 R leds[7]~output_o $end
$var wire 1 S seg7_data[0]~output_o $end
$var wire 1 T seg7_data[1]~output_o $end
$var wire 1 U seg7_data[2]~output_o $end
$var wire 1 V seg7_data[3]~output_o $end
$var wire 1 W seg7_data[4]~output_o $end
$var wire 1 X seg7_data[5]~output_o $end
$var wire 1 Y seg7_data[6]~output_o $end
$var wire 1 Z seg7_char1~output_o $end
$var wire 1 [ seg7_char2~output_o $end
$var wire 1 \ clkin_50~input_o $end
$var wire 1 ] clkin_50~inputclkctrl_outclk $end
$var wire 1 ^ GEN1|Add0~0_combout $end
$var wire 1 _ GEN1|bin_counter[0]~28_combout $end
$var wire 1 ` rst_n~input_o $end
$var wire 1 a GEN1|Add0~1 $end
$var wire 1 b GEN1|Add0~2_combout $end
$var wire 1 c GEN1|bin_counter[1]~27_combout $end
$var wire 1 d GEN1|Add0~3 $end
$var wire 1 e GEN1|Add0~4_combout $end
$var wire 1 f GEN1|bin_counter[2]~31_combout $end
$var wire 1 g GEN1|Add0~5 $end
$var wire 1 h GEN1|Add0~6_combout $end
$var wire 1 i GEN1|bin_counter~26_combout $end
$var wire 1 j GEN1|Add0~7 $end
$var wire 1 k GEN1|Add0~8_combout $end
$var wire 1 l GEN1|bin_counter~25_combout $end
$var wire 1 m GEN1|Add0~9 $end
$var wire 1 n GEN1|Add0~10_combout $end
$var wire 1 o GEN1|bin_counter~24_combout $end
$var wire 1 p GEN1|Add0~11 $end
$var wire 1 q GEN1|Add0~12_combout $end
$var wire 1 r GEN1|bin_counter[6]~30_combout $end
$var wire 1 s GEN1|Add0~13 $end
$var wire 1 t GEN1|Add0~14_combout $end
$var wire 1 u GEN1|bin_counter[7]~29_combout $end
$var wire 1 v GEN1|Add0~15 $end
$var wire 1 w GEN1|Add0~16_combout $end
$var wire 1 x GEN1|bin_counter~23_combout $end
$var wire 1 y GEN1|Add0~17 $end
$var wire 1 z GEN1|Add0~18_combout $end
$var wire 1 { GEN1|bin_counter~22_combout $end
$var wire 1 | GEN1|Add0~19 $end
$var wire 1 } GEN1|Add0~20_combout $end
$var wire 1 ~ GEN1|bin_counter~21_combout $end
$var wire 1 !! GEN1|Add0~21 $end
$var wire 1 "! GEN1|Add0~22_combout $end
$var wire 1 #! GEN1|bin_counter~20_combout $end
$var wire 1 $! GEN1|Add0~23 $end
$var wire 1 %! GEN1|Add0~24_combout $end
$var wire 1 &! GEN1|bin_counter~19_combout $end
$var wire 1 '! GEN1|Add0~25 $end
$var wire 1 (! GEN1|Add0~26_combout $end
$var wire 1 )! GEN1|bin_counter~18_combout $end
$var wire 1 *! GEN1|Add0~27 $end
$var wire 1 +! GEN1|Add0~28_combout $end
$var wire 1 ,! GEN1|bin_counter~17_combout $end
$var wire 1 -! GEN1|Add0~29 $end
$var wire 1 .! GEN1|Add0~30_combout $end
$var wire 1 /! GEN1|bin_counter~16_combout $end
$var wire 1 0! GEN1|Add0~31 $end
$var wire 1 1! GEN1|Add0~32_combout $end
$var wire 1 2! GEN1|bin_counter~15_combout $end
$var wire 1 3! GEN1|Add0~33 $end
$var wire 1 4! GEN1|Add0~34_combout $end
$var wire 1 5! GEN1|bin_counter~14_combout $end
$var wire 1 6! GEN1|Add0~35 $end
$var wire 1 7! GEN1|Add0~36_combout $end
$var wire 1 8! GEN1|bin_counter~13_combout $end
$var wire 1 9! GEN1|Add0~37 $end
$var wire 1 :! GEN1|Add0~38_combout $end
$var wire 1 ;! GEN1|bin_counter~12_combout $end
$var wire 1 <! GEN1|Add0~39 $end
$var wire 1 =! GEN1|Add0~40_combout $end
$var wire 1 >! GEN1|bin_counter~11_combout $end
$var wire 1 ?! GEN1|Add0~41 $end
$var wire 1 @! GEN1|Add0~42_combout $end
$var wire 1 A! GEN1|bin_counter~10_combout $end
$var wire 1 B! GEN1|Equal0~4_combout $end
$var wire 1 C! GEN1|Add0~43 $end
$var wire 1 D! GEN1|Add0~44_combout $end
$var wire 1 E! GEN1|bin_counter~9_combout $end
$var wire 1 F! GEN1|Add0~45 $end
$var wire 1 G! GEN1|Add0~46_combout $end
$var wire 1 H! GEN1|bin_counter~8_combout $end
$var wire 1 I! GEN1|Add0~47 $end
$var wire 1 J! GEN1|Add0~48_combout $end
$var wire 1 K! GEN1|bin_counter~7_combout $end
$var wire 1 L! GEN1|Add0~49 $end
$var wire 1 M! GEN1|Add0~50_combout $end
$var wire 1 N! GEN1|bin_counter~6_combout $end
$var wire 1 O! GEN1|Equal0~3_combout $end
$var wire 1 P! GEN1|Add0~51 $end
$var wire 1 Q! GEN1|Add0~52_combout $end
$var wire 1 R! GEN1|bin_counter~3_combout $end
$var wire 1 S! GEN1|Add0~53 $end
$var wire 1 T! GEN1|Add0~54_combout $end
$var wire 1 U! GEN1|bin_counter~2_combout $end
$var wire 1 V! GEN1|Add0~55 $end
$var wire 1 W! GEN1|Add0~56_combout $end
$var wire 1 X! GEN1|bin_counter~1_combout $end
$var wire 1 Y! GEN1|Add0~57 $end
$var wire 1 Z! GEN1|Add0~58_combout $end
$var wire 1 [! GEN1|bin_counter~0_combout $end
$var wire 1 \! GEN1|Add0~59 $end
$var wire 1 ]! GEN1|Add0~60_combout $end
$var wire 1 ^! GEN1|bin_counter~5_combout $end
$var wire 1 _! GEN1|Equal0~0_combout $end
$var wire 1 `! GEN1|Equal0~1_combout $end
$var wire 1 a! GEN1|Add0~61 $end
$var wire 1 b! GEN1|Add0~62_combout $end
$var wire 1 c! GEN1|bin_counter~4_combout $end
$var wire 1 d! GEN1|Equal0~2_combout $end
$var wire 1 e! GEN1|Equal0~8_combout $end
$var wire 1 f! GEN1|Equal0~7_combout $end
$var wire 1 g! GEN1|Equal0~5_combout $end
$var wire 1 h! GEN1|Equal0~6_combout $end
$var wire 1 i! GEN1|Equal0~9_combout $end
$var wire 1 j! GEN1|Equal0~10_combout $end
$var wire 1 k! GEN1|terminal_count~q $end
$var wire 1 l! GEN1|strobe~0_combout $end
$var wire 1 m! GEN1|strobe~q $end
$var wire 1 n! GEN1|CLKEN_GEN~0_combout $end
$var wire 1 o! GEN1|full_cycle~q $end
$var wire 1 p! GEN2|Add0~1_cout $end
$var wire 1 q! GEN2|Add0~3_cout $end
$var wire 1 r! GEN2|Add0~4_combout $end
$var wire 1 s! GEN2|bin_counter[2]~29_combout $end
$var wire 1 t! GEN2|Add0~5 $end
$var wire 1 u! GEN2|Add0~6_combout $end
$var wire 1 v! GEN2|bin_counter~27_combout $end
$var wire 1 w! GEN2|Add0~7 $end
$var wire 1 x! GEN2|Add0~8_combout $end
$var wire 1 y! GEN2|bin_counter~26_combout $end
$var wire 1 z! GEN2|Add0~9 $end
$var wire 1 {! GEN2|Add0~10_combout $end
$var wire 1 |! GEN2|bin_counter[5]~28_combout $end
$var wire 1 }! GEN2|Add0~11 $end
$var wire 1 ~! GEN2|Add0~12_combout $end
$var wire 1 !" GEN2|bin_counter~25_combout $end
$var wire 1 "" GEN2|Add0~13 $end
$var wire 1 #" GEN2|Add0~14_combout $end
$var wire 1 $" GEN2|bin_counter~24_combout $end
$var wire 1 %" GEN2|Add0~15 $end
$var wire 1 &" GEN2|Add0~16_combout $end
$var wire 1 '" GEN2|bin_counter~23_combout $end
$var wire 1 (" GEN2|Add0~17 $end
$var wire 1 )" GEN2|Add0~18_combout $end
$var wire 1 *" GEN2|bin_counter~22_combout $end
$var wire 1 +" GEN2|Add0~19 $end
$var wire 1 ," GEN2|Add0~20_combout $end
$var wire 1 -" GEN2|bin_counter~21_combout $end
$var wire 1 ." GEN2|Add0~21 $end
$var wire 1 /" GEN2|Add0~22_combout $end
$var wire 1 0" GEN2|bin_counter~20_combout $end
$var wire 1 1" GEN2|Add0~23 $end
$var wire 1 2" GEN2|Add0~24_combout $end
$var wire 1 3" GEN2|bin_counter~19_combout $end
$var wire 1 4" GEN2|Add0~25 $end
$var wire 1 5" GEN2|Add0~26_combout $end
$var wire 1 6" GEN2|bin_counter~18_combout $end
$var wire 1 7" GEN2|Add0~27 $end
$var wire 1 8" GEN2|Add0~28_combout $end
$var wire 1 9" GEN2|bin_counter~17_combout $end
$var wire 1 :" GEN2|Add0~29 $end
$var wire 1 ;" GEN2|Add0~30_combout $end
$var wire 1 <" GEN2|bin_counter~16_combout $end
$var wire 1 =" GEN2|Add0~31 $end
$var wire 1 >" GEN2|Add0~32_combout $end
$var wire 1 ?" GEN2|bin_counter~15_combout $end
$var wire 1 @" GEN2|Add0~33 $end
$var wire 1 A" GEN2|Add0~34_combout $end
$var wire 1 B" GEN2|bin_counter~14_combout $end
$var wire 1 C" GEN2|Add0~35 $end
$var wire 1 D" GEN2|Add0~36_combout $end
$var wire 1 E" GEN2|bin_counter~13_combout $end
$var wire 1 F" GEN2|Add0~37 $end
$var wire 1 G" GEN2|Add0~38_combout $end
$var wire 1 H" GEN2|bin_counter~12_combout $end
$var wire 1 I" GEN2|Add0~39 $end
$var wire 1 J" GEN2|Add0~40_combout $end
$var wire 1 K" GEN2|bin_counter~11_combout $end
$var wire 1 L" GEN2|Add0~41 $end
$var wire 1 M" GEN2|Add0~42_combout $end
$var wire 1 N" GEN2|bin_counter~10_combout $end
$var wire 1 O" GEN2|Add0~43 $end
$var wire 1 P" GEN2|Add0~44_combout $end
$var wire 1 Q" GEN2|bin_counter~9_combout $end
$var wire 1 R" GEN2|Add0~45 $end
$var wire 1 S" GEN2|Add0~46_combout $end
$var wire 1 T" GEN2|bin_counter~8_combout $end
$var wire 1 U" GEN2|Add0~47 $end
$var wire 1 V" GEN2|Add0~48_combout $end
$var wire 1 W" GEN2|bin_counter~7_combout $end
$var wire 1 X" GEN2|Add0~49 $end
$var wire 1 Y" GEN2|Add0~50_combout $end
$var wire 1 Z" GEN2|bin_counter~6_combout $end
$var wire 1 [" GEN2|Add0~51 $end
$var wire 1 \" GEN2|Add0~52_combout $end
$var wire 1 ]" GEN2|bin_counter~3_combout $end
$var wire 1 ^" GEN2|Add0~53 $end
$var wire 1 _" GEN2|Add0~54_combout $end
$var wire 1 `" GEN2|bin_counter~2_combout $end
$var wire 1 a" GEN2|Add0~55 $end
$var wire 1 b" GEN2|Add0~56_combout $end
$var wire 1 c" GEN2|bin_counter~1_combout $end
$var wire 1 d" GEN2|Add0~57 $end
$var wire 1 e" GEN2|Add0~58_combout $end
$var wire 1 f" GEN2|bin_counter~0_combout $end
$var wire 1 g" GEN2|Equal0~0_combout $end
$var wire 1 h" GEN2|Add0~59 $end
$var wire 1 i" GEN2|Add0~60_combout $end
$var wire 1 j" GEN2|bin_counter~5_combout $end
$var wire 1 k" GEN2|Add0~61 $end
$var wire 1 l" GEN2|Add0~62_combout $end
$var wire 1 m" GEN2|bin_counter~4_combout $end
$var wire 1 n" GEN2|Equal0~1_combout $end
$var wire 1 o" GEN2|Equal0~3_combout $end
$var wire 1 p" GEN2|Equal0~5_combout $end
$var wire 1 q" GEN2|Equal0~7_combout $end
$var wire 1 r" GEN2|Equal0~4_combout $end
$var wire 1 s" GEN2|Equal0~6_combout $end
$var wire 1 t" GEN2|Equal0~8_combout $end
$var wire 1 u" GEN2|Equal0~2_combout $end
$var wire 1 v" GEN2|Equal0~9_combout $end
$var wire 1 w" GEN2|terminal_count~feeder_combout $end
$var wire 1 x" GEN2|terminal_count~q $end
$var wire 1 y" GEN2|strobe~0_combout $end
$var wire 1 z" GEN2|strobe~q $end
$var wire 1 {" GEN2|CLKEN_GEN~0_combout $end
$var wire 1 |" GEN2|full_cycle~q $end
$var wire 1 }" GEN1|bin_counter [31] $end
$var wire 1 ~" GEN1|bin_counter [30] $end
$var wire 1 !# GEN1|bin_counter [29] $end
$var wire 1 "# GEN1|bin_counter [28] $end
$var wire 1 ## GEN1|bin_counter [27] $end
$var wire 1 $# GEN1|bin_counter [26] $end
$var wire 1 %# GEN1|bin_counter [25] $end
$var wire 1 &# GEN1|bin_counter [24] $end
$var wire 1 '# GEN1|bin_counter [23] $end
$var wire 1 (# GEN1|bin_counter [22] $end
$var wire 1 )# GEN1|bin_counter [21] $end
$var wire 1 *# GEN1|bin_counter [20] $end
$var wire 1 +# GEN1|bin_counter [19] $end
$var wire 1 ,# GEN1|bin_counter [18] $end
$var wire 1 -# GEN1|bin_counter [17] $end
$var wire 1 .# GEN1|bin_counter [16] $end
$var wire 1 /# GEN1|bin_counter [15] $end
$var wire 1 0# GEN1|bin_counter [14] $end
$var wire 1 1# GEN1|bin_counter [13] $end
$var wire 1 2# GEN1|bin_counter [12] $end
$var wire 1 3# GEN1|bin_counter [11] $end
$var wire 1 4# GEN1|bin_counter [10] $end
$var wire 1 5# GEN1|bin_counter [9] $end
$var wire 1 6# GEN1|bin_counter [8] $end
$var wire 1 7# GEN1|bin_counter [7] $end
$var wire 1 8# GEN1|bin_counter [6] $end
$var wire 1 9# GEN1|bin_counter [5] $end
$var wire 1 :# GEN1|bin_counter [4] $end
$var wire 1 ;# GEN1|bin_counter [3] $end
$var wire 1 <# GEN1|bin_counter [2] $end
$var wire 1 =# GEN1|bin_counter [1] $end
$var wire 1 ># GEN1|bin_counter [0] $end
$var wire 1 ?# GEN2|bin_counter [31] $end
$var wire 1 @# GEN2|bin_counter [30] $end
$var wire 1 A# GEN2|bin_counter [29] $end
$var wire 1 B# GEN2|bin_counter [28] $end
$var wire 1 C# GEN2|bin_counter [27] $end
$var wire 1 D# GEN2|bin_counter [26] $end
$var wire 1 E# GEN2|bin_counter [25] $end
$var wire 1 F# GEN2|bin_counter [24] $end
$var wire 1 G# GEN2|bin_counter [23] $end
$var wire 1 H# GEN2|bin_counter [22] $end
$var wire 1 I# GEN2|bin_counter [21] $end
$var wire 1 J# GEN2|bin_counter [20] $end
$var wire 1 K# GEN2|bin_counter [19] $end
$var wire 1 L# GEN2|bin_counter [18] $end
$var wire 1 M# GEN2|bin_counter [17] $end
$var wire 1 N# GEN2|bin_counter [16] $end
$var wire 1 O# GEN2|bin_counter [15] $end
$var wire 1 P# GEN2|bin_counter [14] $end
$var wire 1 Q# GEN2|bin_counter [13] $end
$var wire 1 R# GEN2|bin_counter [12] $end
$var wire 1 S# GEN2|bin_counter [11] $end
$var wire 1 T# GEN2|bin_counter [10] $end
$var wire 1 U# GEN2|bin_counter [9] $end
$var wire 1 V# GEN2|bin_counter [8] $end
$var wire 1 W# GEN2|bin_counter [7] $end
$var wire 1 X# GEN2|bin_counter [6] $end
$var wire 1 Y# GEN2|bin_counter [5] $end
$var wire 1 Z# GEN2|bin_counter [4] $end
$var wire 1 [# GEN2|bin_counter [3] $end
$var wire 1 \# GEN2|bin_counter [2] $end
$var wire 1 ]# GEN2|bin_counter [1] $end
$var wire 1 ^# GEN2|bin_counter [0] $end
$upscope $end
$upscope $end
$enddefinitions $end
#0
$dumpvars
0!
bx "
0#
bx $
0,
0+
0*
0)
0(
0'
0&
0%
0-
0.
05
04
03
02
01
00
0/
06
17
x8
19
1:
1;
x<
x=
x>
x?
x@
xA
xB
xC
xD
xE
xF
xG
0H
zI
zJ
0K
0L
0M
0N
0O
0P
0Q
0R
0S
0T
0U
0V
0W
0X
0Y
0Z
0[
0\
0]
0^
1_
0`
1a
1b
0c
0d
1e
0f
1g
0h
0i
0j
0k
0l
1m
0n
0o
0p
1q
0r
1s
1t
0u
0v
0w
0x
1y
0z
0{
0|
0}
0~
1!!
0"!
0#!
0$!
0%!
0&!
1'!
0(!
0)!
0*!
0+!
0,!
1-!
0.!
0/!
00!
01!
02!
13!
04!
05!
06!
07!
08!
19!
0:!
0;!
0<!
0=!
0>!
1?!
0@!
0A!
1B!
0C!
0D!
0E!
1F!
0G!
0H!
0I!
0J!
0K!
1L!
0M!
0N!
1O!
0P!
0Q!
0R!
1S!
0T!
0U!
0V!
0W!
0X!
1Y!
0Z!
0[!
0\!
0]!
0^!
0_!
1`!
1a!
0b!
0c!
0d!
0e!
0f!
1g!
1h!
0i!
0j!
0k!
0l!
0m!
0n!
0o!
1p!
0q!
1r!
0s!
1t!
0u!
0v!
0w!
0x!
0y!
1z!
1{!
0|!
0}!
0~!
0!"
1""
0#"
0$"
0%"
0&"
0'"
1("
0)"
0*"
0+"
0,"
0-"
1."
0/"
00"
01"
02"
03"
14"
05"
06"
07"
08"
09"
1:"
0;"
0<"
0="
0>"
0?"
1@"
0A"
0B"
0C"
0D"
0E"
1F"
0G"
0H"
0I"
0J"
0K"
1L"
0M"
0N"
0O"
0P"
0Q"
1R"
0S"
0T"
0U"
0V"
0W"
1X"
0Y"
0Z"
0["
0\"
0]"
1^"
0_"
0`"
0a"
0b"
0c"
1d"
0e"
0f"
1g"
0h"
0i"
0j"
1k"
0l"
0m"
0n"
1o"
1p"
0q"
1r"
1s"
0t"
1u"
0v"
0w"
0x"
0y"
0z"
0{"
0|"
0>#
0=#
0<#
0;#
0:#
09#
08#
07#
06#
05#
04#
03#
02#
01#
00#
0/#
0.#
0-#
0,#
0+#
0*#
0)#
0(#
0'#
0&#
0%#
0$#
0##
0"#
0!#
0~"
0}"
z^#
z]#
0\#
0[#
0Z#
0Y#
0X#
0W#
0V#
0U#
0T#
0S#
0R#
0Q#
0P#
0O#
0N#
0M#
0L#
0K#
0J#
0I#
0H#
0G#
0F#
0E#
0D#
0C#
0B#
0A#
0@#
0?#
$end
#100000
1!
1\
1]
#200000
0!
0\
0]
#300000
1!
1\
1]
#400000
0!
0\
0]
#500000
1!
1\
1]
#600000
0!
0\
0]
#640000
1#
1`
#700000
1!
1\
1]
1>#
0p!
0a
1^
0b
0_
1c
#800000
0!
0\
0]
#900000
1!
1\
1]
1=#
0>#
1q!
1d
1b
1p!
1a
0^
0r!
0e
0q!
0d
0b
0c
1_
1r!
1e
1s!
1f
1c
0s!
0f
#1000000
0!
0\
0]
#1100000
1!
1\
1]
1>#
0p!
1_!
0a
1^
1q!
1n"
1d!
1d
1b
0_
0r!
0e
0c
1s!
1f
#1200000
0!
0\
0]
#1300000
1!
1\
1]
1\#
1<#
0=#
0>#
0t!
1r!
1e!
0g
1e
0q!
0_!
0d
0b
1p!
1a
0^
1w!
1u!
1j
1h
1t!
0r!
0n"
0d!
1g
0e
1b
0s!
0f
1c
1_
0z!
1x!
0m
1k
0w!
0u!
0j
0h
1v!
1i
1s!
1f
0c
0{!
1p
1n
1z!
0x!
1m
0k
1y!
1l
0v!
0i
0q
1{!
0p
0n
1|!
1o
0y!
0l
1q
1r
0|!
0o
0r
#1400000
0!
0\
0]
#1500000
1!
1\
1]
1>#
0p!
0a
1^
0b
0_
1c
#1600000
0!
0\
0]
#1700000
1!
1\
1]
1=#
0>#
1q!
1d
1b
1p!
1a
0^
0t!
1r!
0g
1e
0q!
0d
0b
0c
1_
1w!
1u!
1j
1h
1t!
0r!
1g
0e
0s!
0f
1c
0z!
1x!
0m
1k
0w!
0u!
0j
0h
1v!
1i
1s!
1f
0{!
1p
1n
1z!
0x!
1m
0k
1y!
1l
0v!
0i
0q
1{!
0p
0n
1|!
1o
0y!
0l
1q
1r
0|!
0o
0r
#1800000
0!
0\
0]
#1900000
1!
1\
1]
1>#
0p!
1_!
0a
1^
1q!
1n"
1d!
1d
1b
0_
0t!
1r!
0g
1e
0c
1w!
1u!
1j
1h
0s!
0f
0z!
1x!
0m
1k
1v!
1i
0{!
1p
1n
1y!
1l
0q
1|!
1o
1r
#2000000
0!
0\
0]
#2100000
1!
1\
1]
1Y#
1Z#
1[#
0\#
18#
19#
1:#
1;#
0<#
0=#
0>#
1}!
1{!
1z!
0x!
0w!
0u!
1t!
0r!
0s
1q
0e!
0p
0n
1m
0k
0j
0h
1g
0e
0q!
0_!
0d
0b
1p!
1a
0^
0""
1~!
0}!
0{!
1x!
1u!
0t
1s
0q
1n
1k
1h
1r!
0n"
0d!
1e
1b
0|!
0y!
0v!
1s!
0r
0o
0l
0i
1f
1c
1_
1%"
1#"
1""
0~!
1t
1!"
1|!
1y!
1v!
1u
1r
1o
1l
1i
0s!
0f
0c
0("
1&"
0%"
0#"
1$"
0!"
0u
1+"
1)"
1("
0&"
1'"
0$"
0."
1,"
0+"
0)"
1*"
0'"
11"
1/"
1."
0,"
1-"
0*"
04"
12"
01"
0/"
10"
0-"
17"
15"
14"
02"
13"
00"
0:"
18"
07"
05"
16"
03"
1="
1;"
1:"
08"
19"
06"
0@"
1>"
0="
0;"
1<"
09"
1C"
1A"
1@"
0>"
1?"
0<"
0F"
1D"
0C"
0A"
1B"
0?"
1I"
1G"
1F"
0D"
1E"
0B"
0L"
1J"
0I"
0G"
1H"
0E"
1O"
1M"
1L"
0J"
1K"
0H"
0R"
1P"
0O"
0M"
1N"
0K"
1U"
1S"
1R"
0P"
1Q"
0N"
0X"
1V"
0U"
0S"
1T"
0Q"
1["
1Y"
1X"
0V"
1W"
0T"
0^"
1\"
0["
0Y"
1Z"
0W"
1a"
1_"
1^"
0\"
1]"
0Z"
0d"
1b"
0a"
0_"
1`"
0]"
1h"
1e"
1d"
0b"
1c"
0`"
0k"
1i"
0h"
0e"
1f"
0c"
1l"
1k"
0i"
1j"
0f"
0l"
1m"
0j"
0m"
#2200000
0!
0\
0]
#2300000
1!
1\
1]
1>#
0p!
0a
1^
0b
0_
1c
#2400000
0!
0\
0]
#2500000
1!
1\
1]
1=#
0>#
1q!
1d
1b
1p!
1a
0^
0r!
0e
0q!
0d
0b
0c
1_
1r!
1e
1s!
1f
1c
0s!
0f
#2600000
0!
0\
0]
#2700000
1!
1\
1]
1>#
0p!
1_!
0a
1^
1q!
1n"
1d!
1d
1b
0_
0r!
0e
0c
1s!
1f
#2800000
0!
0\
0]
#2900000
1!
1\
1]
1\#
1<#
0=#
0>#
0t!
1r!
0g
1e
0q!
0_!
0d
0b
1p!
1a
0^
0u!
0h
1t!
0r!
0n"
0d!
1g
0e
1b
0s!
0f
1c
1_
1u!
1h
0v!
0i
1s!
1f
0c
1v!
1i
#3000000
0!
0\
0]
#3100000
1!
1\
1]
1>#
0p!
0a
1^
0b
0_
1c
#3200000
0!
0\
0]
#3300000
1!
1\
1]
1=#
0>#
1q!
1d
1b
1p!
1a
0^
0t!
1r!
0g
1e
0q!
0d
0b
0c
1_
0u!
0h
1t!
0r!
1g
0e
0s!
0f
1c
1u!
1h
0v!
0i
1s!
1f
1v!
1i
#3400000
0!
0\
0]
#3500000
1!
1\
1]
1>#
0p!
1_!
0a
1^
1q!
1n"
1d!
1d
1b
0_
0t!
1r!
0g
1e
0c
0u!
0h
0s!
0f
0v!
0i
#3600000
0!
0\
0]
#3700000
1!
1\
1]
0[#
0\#
0;#
0<#
0=#
0>#
1w!
1u!
1t!
0r!
1j
1h
1g
0e
0q!
0_!
0d
0b
1p!
1a
0^
0x!
0w!
0u!
0k
0j
0h
1r!
0n"
0d!
1e
1b
1v!
1s!
1i
1f
1c
1_
1x!
1k
0y!
0v!
0l
0i
0s!
0f
0c
1y!
1l
#3800000
0!
0\
0]
#3900000
1!
1\
1]
1>#
0p!
0a
1^
0b
0_
1c
#4000000
0!
0\
0]
#4100000
1!
1\
1]
1=#
0>#
1q!
1d
1b
1p!
1a
0^
0r!
0e
0q!
0d
0b
0c
1_
1r!
1e
1s!
1f
1c
0s!
0f
#4200000
0!
0\
0]
#4300000
1!
1\
1]
1>#
0p!
1_!
0a
1^
1q!
1n"
1d!
1d
1b
0_
0r!
0e
0c
1s!
1f
#4400000
0!
0\
0]
#4500000
1!
1\
1]
1\#
1<#
0=#
0>#
0t!
1r!
0g
1e
0q!
0_!
0d
0b
1p!
1a
0^
1w!
1u!
1j
1h
1t!
0r!
0n"
0d!
1g
0e
1b
0s!
0f
1c
1_
0x!
0k
0w!
0u!
0j
0h
1v!
1i
1s!
1f
0c
1x!
1k
0y!
0l
0v!
0i
1y!
1l
#4600000
0!
0\
0]
#4700000
1!
1\
1]
1>#
0p!
0a
1^
0b
0_
1c
#4800000
0!
0\
0]
#4900000
1!
1\
1]
1=#
0>#
1q!
1d
1b
1p!
1a
0^
0t!
1r!
0g
1e
0q!
0d
0b
0c
1_
1w!
1u!
1j
1h
1t!
0r!
1g
0e
0s!
0f
1c
0x!
0k
0w!
0u!
0j
0h
1v!
1i
1s!
1f
1x!
1k
0y!
0l
0v!
0i
1y!
1l
#5000000
0!
0\
0]
#5100000
1!
1\
1]
1>#
0p!
1_!
0a
1^
1q!
1n"
1d!
1d
1b
0_
0t!
1r!
0g
1e
0c
1w!
1u!
1j
1h
0s!
0f
0x!
0k
1v!
1i
0y!
0l
#5200000
0!
0\
0]
#5300000
1!
1\
1]
0Z#
1[#
0\#
0:#
1;#
0<#
0=#
0>#
0z!
1x!
0w!
0u!
1t!
0r!
0m
1k
0j
0h
1g
0e
0q!
0_!
0d
0b
1p!
1a
0^
1}!
1{!
1z!
0x!
1u!
0n
1m
0k
1h
1r!
0n"
0d!
1e
1b
1y!
0v!
1s!
1l
0i
1f
1c
1_
0""
1~!
0}!
0{!
1n
0|!
0y!
1v!
0o
0l
1i
0s!
0f
0c
1%"
1#"
1""
0~!
1!"
1|!
1o
0("
1&"
0%"
0#"
1$"
0!"
1+"
1)"
1("
0&"
1'"
0$"
0."
1,"
0+"
0)"
1*"
0'"
11"
1/"
1."
0,"
1-"
0*"
04"
12"
01"
0/"
10"
0-"
17"
15"
14"
02"
13"
00"
0:"
18"
07"
05"
16"
03"
1="
1;"
1:"
08"
19"
06"
0@"
1>"
0="
0;"
1<"
09"
1C"
1A"
1@"
0>"
1?"
0<"
0F"
1D"
0C"
0A"
1B"
0?"
1I"
1G"
1F"
0D"
1E"
0B"
0L"
1J"
0I"
0G"
1H"
0E"
1O"
1M"
1L"
0J"
1K"
0H"
0R"
1P"
0O"
0M"
1N"
0K"
1U"
1S"
1R"
0P"
1Q"
0N"
0X"
1V"
0U"
0S"
1T"
0Q"
1["
1Y"
1X"
0V"
1W"
0T"
0^"
1\"
0["
0Y"
1Z"
0W"
1a"
1_"
1^"
0\"
1]"
0Z"
0d"
1b"
0a"
0_"
1`"
0]"
1h"
1e"
1d"
0b"
1c"
0`"
0k"
1i"
0h"
0e"
1f"
0c"
1l"
1k"
0i"
1j"
0f"
0l"
1m"
0j"
0m"
#5400000
0!
0\
0]
#5500000
1!
1\
1]
1>#
0p!
0a
1^
0b
0_
1c
#5600000
0!
0\
0]
#5700000
1!
1\
1]
1=#
0>#
1q!
1d
1b
1p!
1a
0^
0r!
0e
0q!
0d
0b
0c
1_
1r!
1e
1s!
1f
1c
0s!
0f
#5800000
0!
0\
0]
#5900000
1!
1\
1]
1>#
0p!
1_!
0a
1^
1q!
1n"
1d!
1d
1b
0_
0r!
0e
0c
1s!
1f
#6000000
0!
0\
0]
#6100000
1!
1\
1]
1\#
1<#
0=#
0>#
0t!
1r!
0g
1e
0q!
0_!
0d
0b
1p!
1a
0^
0u!
0h
1t!
0r!
0n"
0d!
1g
0e
1b
0s!
0f
1c
1_
1u!
1h
0v!
0i
1s!
1f
0c
1v!
1i
#6200000
0!
0\
0]
#6300000
1!
1\
1]
1>#
0p!
0a
1^
0b
0_
1c
#6400000
0!
0\
0]
#6500000
1!
1\
1]
1=#
0>#
1q!
1d
1b
1p!
1a
0^
0t!
1r!
0g
1e
0q!
0d
0b
0c
1_
0u!
0h
1t!
0r!
1g
0e
0s!
0f
1c
1u!
1h
0v!
0i
1s!
1f
1v!
1i
#6600000
0!
0\
0]
#6700000
1!
1\
1]
1>#
0p!
1_!
0a
1^
1q!
1n"
1d!
1d
1b
0_
0t!
1r!
0g
1e
0c
0u!
0h
0s!
0f
0v!
0i
#6800000
0!
0\
0]
